Task2/deconv2D_tb.vcd
$date
	Sun Dec  7 17:30:42 2025
$end
$version
	Icarus Verilog
$end
$timescale
	1ps
$end
$scope module tb_deconv2D $end
$var wire 32 ! final_output [31:0] $end
$var wire 1 " done $end
$var parameter 32 # CLK_PERIOD $end
$var parameter 32 $ K $end
$var parameter 32 % N $end
$var parameter 128 & OUTPUT_SIZE $end
$var parameter 32 ' pixel_bits $end
$var reg 1 ( clk $end
$var reg 1 ) enable $end
$var reg 8 * kernel_weight [7:0] $end
$var reg 2 + kernel_width [1:0] $end
$var reg 8 , pixel [7:0] $end
$var reg 2 - pixel_number [1:0] $end
$var reg 6 . result_address [5:0] $end
$var reg 1 / rst $end
$var reg 2 0 stride [1:0] $end
$var reg 1 1 strobe_signal_kernel $end
$var reg 1 2 strobe_signal_pixel $end
$var integer 32 3 i [31:0] $end
$var integer 32 4 j [31:0] $end
$scope module uut $end
$var wire 1 ( clk $end
$var wire 1 " done $end
$var wire 1 ) enable $end
$var wire 32 5 final_output [31:0] $end
$var wire 8 6 kernel_weight [7:0] $end
$var wire 2 7 kernel_width [1:0] $end
$var wire 8 8 pixel [7:0] $end
$var wire 2 9 pixel_number [1:0] $end
$var wire 6 : result_address [5:0] $end
$var wire 1 / rst $end
$var wire 2 ; stride [1:0] $end
$var wire 1 1 strobe_signal_kernel $end
$var wire 1 2 strobe_signal_pixel $end
$var wire 4 < actual_index [3:0] $end
$var parameter 3 = ADD $end
$var parameter 3 > ASSIGN_REG $end
$var parameter 3 ? CLEAR_RAM $end
$var parameter 3 @ DONE_STATE $end
$var parameter 3 A IDLE $end
$var parameter 3 B INITIALIZE $end
$var parameter 32 C K $end
$var parameter 32 D N $end
$var parameter 32 E pixel_bits $end
$var reg 4 F add_counter [3:0] $end
$var reg 1 G done_temp $end
$var reg 2 H pixel_counter [1:0] $end
$var reg 3 I state [2:0] $end
$var reg 4 J weight_counter [3:0] $end
$var integer 32 K j [31:0] $end
$var integer 32 L k [31:0] $end
$var integer 32 M l [31:0] $end
$scope begin module_instances[0] $end
$var wire 4 N idx_wire [3:0] $end
$var parameter 2 O i $end
$scope module decode_module $end
$var wire 4 P current_index [3:0] $end
$var wire 2 Q pixel_number [1:0] $end
$var wire 2 R stride [1:0] $end
$var wire 3 S shift_y [2:0] $end
$var wire 3 T shift_x [2:0] $end
$var wire 2 U k_y [1:0] $end
$var wire 2 V k_x [1:0] $end
$var wire 6 W decoded_index [5:0] $end
$var parameter 32 X K $end
$var parameter 32 Y N $end
$upscope $end
$scope module multiply $end
$var wire 8 Z kernel_weight [7:0] $end
$var wire 8 [ pixel [7:0] $end
$var wire 16 \ multiplied_output [15:0] $end
$var parameter 32 ] pixel_bits $end
$upscope $end
$upscope $end
$scope begin module_instances[1] $end
$var wire 4 ^ idx_wire [3:0] $end
$var parameter 2 _ i $end
$scope module decode_module $end
$var wire 4 ` current_index [3:0] $end
$var wire 2 a pixel_number [1:0] $end
$var wire 2 b stride [1:0] $end
$var wire 3 c shift_y [2:0] $end
$var wire 3 d shift_x [2:0] $end
$var wire 2 e k_y [1:0] $end
$var wire 2 f k_x [1:0] $end
$var wire 6 g decoded_index [5:0] $end
$var parameter 32 h K $end
$var parameter 32 i N $end
$upscope $end
$scope module multiply $end
$var wire 8 j kernel_weight [7:0] $end
$var wire 8 k pixel [7:0] $end
$var wire 16 l multiplied_output [15:0] $end
$var parameter 32 m pixel_bits $end
$upscope $end
$upscope $end
$scope begin module_instances[2] $end
$var wire 4 n idx_wire [3:0] $end
$var parameter 3 o i $end
$scope module decode_module $end
$var wire 4 p current_index [3:0] $end
$var wire 2 q pixel_number [1:0] $end
$var wire 2 r stride [1:0] $end
$var wire 3 s shift_y [2:0] $end
$var wire 3 t shift_x [2:0] $end
$var wire 2 u k_y [1:0] $end
$var wire 2 v k_x [1:0] $end
$var wire 6 w decoded_index [5:0] $end
$var parameter 32 x K $end
$var parameter 32 y N $end
$upscope $end
$scope module multiply $end
$var wire 8 z kernel_weight [7:0] $end
$var wire 8 { pixel [7:0] $end
$var wire 16 | multiplied_output [15:0] $end
$var parameter 32 } pixel_bits $end
$upscope $end
$upscope $end
$scope begin module_instances[3] $end
$var wire 4 ~ idx_wire [3:0] $end
$var parameter 3 !" i $end
$scope module decode_module $end
$var wire 4 "" current_index [3:0] $end
$var wire 2 #" pixel_number [1:0] $end
$var wire 2 $" stride [1:0] $end
$var wire 3 %" shift_y [2:0] $end
$var wire 3 &" shift_x [2:0] $end
$var wire 2 '" k_y [1:0] $end
$var wire 2 (" k_x [1:0] $end
$var wire 6 )" decoded_index [5:0] $end
$var parameter 32 *" K $end
$var parameter 32 +" N $end
$upscope $end
$scope module multiply $end
$var wire 8 ," kernel_weight [7:0] $end
$var wire 8 -" pixel [7:0] $end
$var wire 16 ." multiplied_output [15:0] $end
$var parameter 32 /" pixel_bits $end
$upscope $end
$upscope $end
$scope begin module_instances[4] $end
$var wire 4 0" idx_wire [3:0] $end
$var parameter 4 1" i $end
$scope module decode_module $end
$var wire 4 2" current_index [3:0] $end
$var wire 2 3" pixel_number [1:0] $end
$var wire 2 4" stride [1:0] $end
$var wire 3 5" shift_y [2:0] $end
$var wire 3 6" shift_x [2:0] $end
$var wire 2 7" k_y [1:0] $end
$var wire 2 8" k_x [1:0] $end
$var wire 6 9" decoded_index [5:0] $end
$var parameter 32 :" K $end
$var parameter 32 ;" N $end
$upscope $end
$scope module multiply $end
$var wire 8 <" kernel_weight [7:0] $end
$var wire 8 =" pixel [7:0] $end
$var wire 16 >" multiplied_output [15:0] $end
$var parameter 32 ?" pixel_bits $end
$upscope $end
$upscope $end
$scope begin module_instances[5] $end
$var wire 4 @" idx_wire [3:0] $end
$var parameter 4 A" i $end
$scope module decode_module $end
$var wire 4 B" current_index [3:0] $end
$var wire 2 C" pixel_number [1:0] $end
$var wire 2 D" stride [1:0] $end
$var wire 3 E" shift_y [2:0] $end
$var wire 3 F" shift_x [2:0] $end
$var wire 2 G" k_y [1:0] $end
$var wire 2 H" k_x [1:0] $end
$var wire 6 I" decoded_index [5:0] $end
$var parameter 32 J" K $end
$var parameter 32 K" N $end
$upscope $end
$scope module multiply $end
$var wire 8 L" kernel_weight [7:0] $end
$var wire 8 M" pixel [7:0] $end
$var wire 16 N" multiplied_output [15:0] $end
$var parameter 32 O" pixel_bits $end
$upscope $end
$upscope $end
$scope begin module_instances[6] $end
$var wire 4 P" idx_wire [3:0] $end
$var parameter 4 Q" i $end
$scope module decode_module $end
$var wire 4 R" current_index [3:0] $end
$var wire 2 S" pixel_number [1:0] $end
$var wire 2 T" stride [1:0] $end
$var wire 3 U" shift_y [2:0] $end
$var wire 3 V" shift_x [2:0] $end
$var wire 2 W" k_y [1:0] $end
$var wire 2 X" k_x [1:0] $end
$var wire 6 Y" decoded_index [5:0] $end
$var parameter 32 Z" K $end
$var parameter 32 [" N $end
$upscope $end
$scope module multiply $end
$var wire 8 \" kernel_weight [7:0] $end
$var wire 8 ]" pixel [7:0] $end
$var wire 16 ^" multiplied_output [15:0] $end
$var parameter 32 _" pixel_bits $end
$upscope $end
$upscope $end
$scope begin module_instances[7] $end
$var wire 4 `" idx_wire [3:0] $end
$var parameter 4 a" i $end
$scope module decode_module $end
$var wire 4 b" current_index [3:0] $end
$var wire 2 c" pixel_number [1:0] $end
$var wire 2 d" stride [1:0] $end
$var wire 3 e" shift_y [2:0] $end
$var wire 3 f" shift_x [2:0] $end
$var wire 2 g" k_y [1:0] $end
$var wire 2 h" k_x [1:0] $end
$var wire 6 i" decoded_index [5:0] $end
$var parameter 32 j" K $end
$var parameter 32 k" N $end
$upscope $end
$scope module multiply $end
$var wire 8 l" kernel_weight [7:0] $end
$var wire 8 m" pixel [7:0] $end
$var wire 16 n" multiplied_output [15:0] $end
$var parameter 32 o" pixel_bits $end
$upscope $end
$upscope $end
$scope begin module_instances[8] $end
$var wire 4 p" idx_wire [3:0] $end
$var parameter 5 q" i $end
$scope module decode_module $end
$var wire 4 r" current_index [3:0] $end
$var wire 2 s" pixel_number [1:0] $end
$var wire 2 t" stride [1:0] $end
$var wire 3 u" shift_y [2:0] $end
$var wire 3 v" shift_x [2:0] $end
$var wire 2 w" k_y [1:0] $end
$var wire 2 x" k_x [1:0] $end
$var wire 6 y" decoded_index [5:0] $end
$var parameter 32 z" K $end
$var parameter 32 {" N $end
$upscope $end
$scope module multiply $end
$var wire 8 |" kernel_weight [7:0] $end
$var wire 8 }" pixel [7:0] $end
$var wire 16 ~" multiplied_output [15:0] $end
$var parameter 32 !# pixel_bits $end
$upscope $end
$upscope $end
$upscope $end
$upscope $end
$enddefinitions $end
$comment Show the parameter values. $end
$dumpall
b1000 !#
b10 {"
b11 z"
b1000 q"
b1000 o"
b10 k"
b11 j"
b111 a"
b1000 _"
b10 ["
b11 Z"
b110 Q"
b1000 O"
b10 K"
b11 J"
b101 A"
b1000 ?"
b10 ;"
b11 :"
b100 1"
b1000 /"
b10 +"
b11 *"
b11 !"
b1000 }
b10 y
b11 x
b10 o
b1000 m
b10 i
b11 h
b1 _
b1000 ]
b10 Y
b11 X
b0 O
b1000 E
b10 D
b11 C
b10 B
b0 A
b101 @
b1 ?
b11 >
b100 =
b1000 '
b100100 &
b10 %
b11 $
b1010 #
$end
#0
$dumpvars
bx ~"
b0 }"
bx |"
b1110 y"
b10 x"
b10 w"
b10 v"
b10 u"
b1 t"
b0 s"
b1000 r"
b1000 p"
bx n"
b0 m"
bx l"
b1101 i"
b10 h"
b1 g"
b10 f"
b1 e"
b1 d"
b0 c"
b111 b"
b111 `"
bx ^"
b0 ]"
bx \"
b1100 Y"
b10 X"
b0 W"
b10 V"
b0 U"
b1 T"
b0 S"
b110 R"
b110 P"
bx N"
b0 M"
bx L"
b1000 I"
b1 H"
b10 G"
b1 F"
b10 E"
b1 D"
b0 C"
b101 B"
b101 @"
bx >"
b0 ="
bx <"
b111 9"
b1 8"
b1 7"
b1 6"
b1 5"
b1 4"
b0 3"
b100 2"
b100 0"
bx ."
b0 -"
bx ,"
b110 )"
b1 ("
b0 '"
b1 &"
b0 %"
b1 $"
b0 #"
b11 ""
b11 ~
bx |
b0 {
bx z
b10 w
b0 v
b10 u
b0 t
b10 s
b1 r
b0 q
b10 p
b10 n
bx l
b0 k
bx j
b1 g
b0 f
b1 e
b0 d
b1 c
b1 b
b0 a
b1 `
b1 ^
bx \
b0 [
bx Z
b0 W
b0 V
b0 U
b0 T
b0 S
b1 R
b0 Q
b0 P
b0 N
bx M
bx L
bx K
bx J
bx I
bx H
xG
bx F
bx <
b1 ;
b0 :
b0 9
b0 8
b11 7
b0 6
bx 5
bx 4
bx 3
02
01
b1 0
1/
b0 .
b0 -
b0 ,
b11 +
b0 *
0)
0(
x"
bx !
$end
#5000
b0 <
b0 I
b0 H
b0 F
b0 J
0"
0G
1(
#10000
0(
#15000
1(
#20000
0(
#25000
1(
#30000
0(
#35000
1(
#40000
0(
#45000
0/
1(
#50000
0(
#55000
1(
#60000
0(
#65000
1(
#70000
0(
#75000
1)
1(
#80000
0(
#85000
0)
1(
#90000
0(
#95000
1(
#100000
0(
#105000
1(
#110000
0(
#115000
1(
#120000
0(
#125000
1(
#130000
0(
#135000
1(
#140000
0(
#145000
b0 3
1(
#150000
0(
#155000
11
b1 *
b1 6
1(
#160000
0(
#165000
b1 3
01
1(
#170000
0(
#175000
11
b10 *
b10 6
1(
#180000
0(
#185000
b10 3
01
1(
#190000
0(
#195000
11
b11 *
b11 6
1(
#200000
0(
#205000
b11 3
01
1(
#210000
0(
#215000
11
b100 *
b100 6
1(
#220000
0(
#225000
b100 3
01
1(
#230000
0(
#235000
11
b101 *
b101 6
1(
#240000
0(
#245000
b101 3
01
1(
#250000
0(
#255000
11
b110 *
b110 6
1(
#260000
0(
#265000
b110 3
01
1(
#270000
0(
#275000
11
b111 *
b111 6
1(
#280000
0(
#285000
b111 3
01
1(
#290000
0(
#295000
11
b1000 *
b1000 6
1(
#300000
0(
#305000
b1000 3
01
1(
#310000
0(
#315000
11
b1001 *
b1001 6
1(
#320000
0(
#325000
b1001 3
01
1(
